^D:\VISUAL STUDIO 2013\PROJECTS\PACMAN1\PROJ.WIN32\MAIN.CPP
/c /I"D:\Visual Studio 2013\Projects\Pacman1\cocos2d\cocos\2d\..\..\cocos\audio\include" /I"D:\Visual Studio 2013\Projects\Pacman1\cocos2d\cocos\2d\..\..\external" /I"D:\Visual Studio 2013\Projects\Pacman1\cocos2d\cocos\2d\..\..\external\chipmunk\include\chipmunk" /I"D:\Visual Studio 2013\Projects\Pacman1\cocos2d\cocos\2d\..\..\extensions" /I..\Classes /I.. /I"D:\Visual Studio 2013\Projects\Pacman1\cocos2d\cocos\2d\..\..\cocos\editor-support" /I"D:\Visual Studio 2013\Projects\Pacman1\cocos2d\cocos\2d\..\..\cocos" /I"D:\Visual Studio 2013\Projects\Pacman1\cocos2d\cocos\2d\..\..\cocos\platform" /I"D:\Visual Studio 2013\Projects\Pacman1\cocos2d\cocos\2d\..\..\cocos\platform\desktop" /I"D:\Visual Studio 2013\Projects\Pacman1\cocos2d\cocos\2d\..\..\external\glfw3\include\win32" /I"D:\Visual Studio 2013\Projects\Pacman1\cocos2d\cocos\2d\..\..\external\win32-specific\gles\include\OGLES" /I"D:\Visual Studio 2013\Projects\Pacman1\cocos2d\cocos\2d\..\..\external\freetype2\include\win32\freetype2" /I"D:\Visual Studio 2013\Projects\Pacman1\cocos2d\cocos\2d\..\..\external\freetype2\include\win32\\" /I"D:\Visual Studio 2013\Projects\Pacman1\cocos2d\cocos\2d\..\..\external" /ZI /nologo /W3 /WX- /Od /Oy- /D WIN32 /D _DEBUG /D _WINDOWS /D _USE_MATH_DEFINES /D GL_GLEXT_PROTOTYPES /D CC_ENABLE_CHIPMUNK_INTEGRATION=1 /D COCOS2D_DEBUG=1 /D _CRT_SECURE_NO_WARNINGS /D _SCL_SECURE_NO_WARNINGS /D _VARIADIC_MAX=10 /D _USING_V110_SDK71_ /D _UNICODE /D UNICODE /Gm- /EHsc /RTC1 /MDd /GS /fp:precise /Zc:wchar_t /Zc:forScope /Fo"DEBUG.WIN32\\" /Fd"DEBUG.WIN32\VC120.PDB" /Gd /TP /wd4267 /wd4251 /wd4244 /analyze- D:\VISUAL STUDIO 2013\PROJECTS\PACMAN1\PROJ.WIN32\MAIN.CPP
^D:\VISUAL STUDIO 2013\PROJECTS\PACMAN1\CLASSES\APPDELEGATE.CPP
/c /I"D:\Visual Studio 2013\Projects\Pacman1\cocos2d\cocos\2d\..\..\cocos\audio\include" /I"D:\Visual Studio 2013\Projects\Pacman1\cocos2d\cocos\2d\..\..\external" /I"D:\Visual Studio 2013\Projects\Pacman1\cocos2d\cocos\2d\..\..\external\chipmunk\include\chipmunk" /I"D:\Visual Studio 2013\Projects\Pacman1\cocos2d\cocos\2d\..\..\extensions" /I..\Classes /I.. /I"D:\Visual Studio 2013\Projects\Pacman1\cocos2d\cocos\2d\..\..\cocos\editor-support" /I"D:\Visual Studio 2013\Projects\Pacman1\cocos2d\cocos\2d\..\..\cocos" /I"D:\Visual Studio 2013\Projects\Pacman1\cocos2d\cocos\2d\..\..\cocos\platform" /I"D:\Visual Studio 2013\Projects\Pacman1\cocos2d\cocos\2d\..\..\cocos\platform\desktop" /I"D:\Visual Studio 2013\Projects\Pacman1\cocos2d\cocos\2d\..\..\external\glfw3\include\win32" /I"D:\Visual Studio 2013\Projects\Pacman1\cocos2d\cocos\2d\..\..\external\win32-specific\gles\include\OGLES" /I"D:\Visual Studio 2013\Projects\Pacman1\cocos2d\cocos\2d\..\..\external\freetype2\include\win32\freetype2" /I"D:\Visual Studio 2013\Projects\Pacman1\cocos2d\cocos\2d\..\..\external\freetype2\include\win32\\" /I"D:\Visual Studio 2013\Projects\Pacman1\cocos2d\cocos\2d\..\..\external" /ZI /nologo /W3 /WX- /Od /Oy- /D WIN32 /D _DEBUG /D _WINDOWS /D _USE_MATH_DEFINES /D GL_GLEXT_PROTOTYPES /D CC_ENABLE_CHIPMUNK_INTEGRATION=1 /D COCOS2D_DEBUG=1 /D _CRT_SECURE_NO_WARNINGS /D _SCL_SECURE_NO_WARNINGS /D _VARIADIC_MAX=10 /D _USING_V110_SDK71_ /D _UNICODE /D UNICODE /Gm- /EHsc /RTC1 /MDd /GS /fp:precise /Zc:wchar_t /Zc:forScope /Fo"DEBUG.WIN32\\" /Fd"DEBUG.WIN32\VC120.PDB" /Gd /TP /wd4267 /wd4251 /wd4244 /analyze- D:\VISUAL STUDIO 2013\PROJECTS\PACMAN1\CLASSES\APPDELEGATE.CPP
^D:\VISUAL STUDIO 2013\PROJECTS\PACMAN1\CLASSES\HELLOWORLDSCENE.CPP
/c /I"D:\Visual Studio 2013\Projects\Pacman1\cocos2d\cocos\2d\..\..\cocos\audio\include" /I"D:\Visual Studio 2013\Projects\Pacman1\cocos2d\cocos\2d\..\..\external" /I"D:\Visual Studio 2013\Projects\Pacman1\cocos2d\cocos\2d\..\..\external\chipmunk\include\chipmunk" /I"D:\Visual Studio 2013\Projects\Pacman1\cocos2d\cocos\2d\..\..\extensions" /I..\Classes /I.. /I"D:\Visual Studio 2013\Projects\Pacman1\cocos2d\cocos\2d\..\..\cocos\editor-support" /I"D:\Visual Studio 2013\Projects\Pacman1\cocos2d\cocos\2d\..\..\cocos" /I"D:\Visual Studio 2013\Projects\Pacman1\cocos2d\cocos\2d\..\..\cocos\platform" /I"D:\Visual Studio 2013\Projects\Pacman1\cocos2d\cocos\2d\..\..\cocos\platform\desktop" /I"D:\Visual Studio 2013\Projects\Pacman1\cocos2d\cocos\2d\..\..\external\glfw3\include\win32" /I"D:\Visual Studio 2013\Projects\Pacman1\cocos2d\cocos\2d\..\..\external\win32-specific\gles\include\OGLES" /I"D:\Visual Studio 2013\Projects\Pacman1\cocos2d\cocos\2d\..\..\external\freetype2\include\win32\freetype2" /I"D:\Visual Studio 2013\Projects\Pacman1\cocos2d\cocos\2d\..\..\external\freetype2\include\win32\\" /I"D:\Visual Studio 2013\Projects\Pacman1\cocos2d\cocos\2d\..\..\external" /ZI /nologo /W3 /WX- /Od /Oy- /D WIN32 /D _DEBUG /D _WINDOWS /D _USE_MATH_DEFINES /D GL_GLEXT_PROTOTYPES /D CC_ENABLE_CHIPMUNK_INTEGRATION=1 /D COCOS2D_DEBUG=1 /D _CRT_SECURE_NO_WARNINGS /D _SCL_SECURE_NO_WARNINGS /D _VARIADIC_MAX=10 /D _USING_V110_SDK71_ /D _UNICODE /D UNICODE /Gm- /EHsc /RTC1 /MDd /GS /fp:precise /Zc:wchar_t /Zc:forScope /Fo"DEBUG.WIN32\\" /Fd"DEBUG.WIN32\VC120.PDB" /Gd /TP /wd4267 /wd4251 /wd4244 /analyze- D:\VISUAL STUDIO 2013\PROJECTS\PACMAN1\CLASSES\HELLOWORLDSCENE.CPP
